-2.85
-2.77
-2.72
-2.65
-2.48
-2.46
-2.42
-2.26
-2.19
-2.13
-2.05
-1.95
-1.92
-1.82
-1.7
-1.72
-1.7
-1.57
-1.57
-1.41
-1.33
-1.2
-1.15
-1.08
-1.06
-0.98
-0.93
-0.89
-0.77
-0.8
-0.8
-0.75
-0.73
-0.75
-0.62
-0.58
-0.58
-0.53
-0.55
-0.5
-0.53
-0.51
-0.5
-0.49
-0.49
-0.4
-0.39
-0.37
-0.54
-0.49
-0.49
-0.48
-0.53
-0.54
-0.41
-0.4
-0.4
-0.4
-0.41
-0.4
-0.4
-0.4
-0.4
-0.4
-0.4
-0.4
-0.4
-0.4
-0.4
-0.4
-0.4
-0.4
-0.38
-0.4
-0.41
-0.4
-0.4
-0.4
-0.4
-0.4
-0.4
-0.4
-0.31
-0.25
-0.25
-0.27
-0.38
-0.36
-0.26
-0.25
-0.25
-0.26
-0.28
-0.26
-0.4
-0.4
-0.4
-0.31
-0.34
-0.4
-0.4
-0.4
-0.4
-0.4
-0.4
-0.4
-0.4
-0.4
-0.4
-0.4
-0.4
-0.4
-0.4
-0.4
-0.4
-0.4
-0.4
-0.4
-0.4
-0.4
-0.44
-0.53
-0.41
-0.4
-0.4
-0.42
-0.55
-0.49
-0.42
-0.42
-0.43
-0.55
-0.55
-0.55
-0.55
-0.55
-0.61
-0.74
-0.99
-1.27
-1.57
-1.91
-2.19
-2.55
-2.93
-3.24
-3.51
-3.8
-4.13
-4.44
-4.8
-5.19
-5.47
-5.74
-6
-6.26
-6.65
-7.07
-7.34
-7.48
-7.42
-7.5
-7.69
-7.97
-8.21
-8.37
-8.54
-8.72
-9.08
-9.74
-10.47
-11.04
-11.44
-11.9
-12.51
-13.03
-13.28
-13.4
-13.46
-13.61
-13.75
-13.86
-14.06
-14.4
-14.81
-15.15
-15.48
-15.54
-15.41
-15.4
-15.51
-15.54
-15.47
-15.45
-15.38
-15.23
-15.24
-15.49
-15.84
-16.18
-16.42
-16.63
-16.77
-16.85
-16.86
-16.86
-16.86
-16.87
-16.91
-16.86
-16.98
-17.16
-17.09
-16.92
-16.86
-16.85
-16.73
-16.61
-16.53
-16.32
-16.02
-15.72
-15.91
-16.4
-16.96
-17.41
-17.75
-17.76
-17.71
-17.84
-18.15
-18.59
-19.05
-19.33
-19.37
-19.32
-19.14
-18.96
-18.93
-19.15
-19.15
-18.83
-18.47
-18.44
-18.69
-18.82
-18.95
-19.17
-19.3
-19.14
-18.94
-18.85
-18.6
-18.11
-17.61
-17.43
-17.48
-17.47
-17.53
-17.54
-17.46
-17.31
-17
-16.62
-16.22
-15.78
-15.44
-15.2
-15.1
-15.23
-15.38
-15.53
-15.62
-15.76
-15.95
-15.94
-15.74
-15.59
-15.47
-15.24
-15.05
-14.87
-14.58
-14.39
-14.17
-13.87
-13.64
-13.48
-13.32
-13.15
-13
-12.85
-12.65
-12.42
-12.26
-12.19
-12.14
-11.99
-11.92
-12.06
-12.35
-12.52
-12.49
-12.38
-12.27
-12.32
-12.28
-12.24
-12.23
-12.17
-12.17
-12.09
-11.96
-11.78
-11.53
-11.26
-10.98
-10.75
-10.53
-10.34
-10.15
-9.92
-9.57
-9.23
-9.07
-8.93
-8.81
-8.66
-8.47
-8.13
-7.66
-7.14
-6.62
-5.89
-5.51
-5.27
-5.05
-4.84
-4.65
-4.47
-4.3
-4.17
-4.01
-3.86
-3.74
-3.61
-3.57
-3.46
-3.35
-3.25
-3.22
-3.11
-3.08
-2.98
-2.86
-2.85
-2.73
-2.71
-2.6
-2.51
-2.47
-2.36
-2.34
-2.25
-2.16